{
    "prepare_queue": {
        "installed": [],
        "uninstalled": []
    },
    "config_munge": {
        "files": {
            "AndroidManifest.xml": {
                "parents": {
                    "/manifest/application": [
                        {
                            "xml": "<activity android:label=\"@string/app_name\" android:name=\"org.pgsqlite.SQLitePlugin\"></activity>",
                            "count": 1
                        }
                    ],
                    "/*": [
                        {
                            "xml": "<uses-permission android:name=\"android.permission.ACCESS_NETWORK_STATE\" />",
                            "count": 1
                        }
                    ]
                }
            },
            "res/xml/config.xml": {
                "parents": {
                    "/*": [
                        {
                            "xml": "<feature name=\"SQLitePlugin\"><param name=\"android-package\" value=\"org.pgsqlite.SQLitePlugin\" /></feature>",
                            "count": 1
                        },
                        {
                            "xml": "<feature name=\"Battery\"><param name=\"android-package\" value=\"org.apache.cordova.batterystatus.BatteryListener\" /></feature>",
                            "count": 1
                        },
                        {
                            "xml": "<feature name=\"Notification\"><param name=\"android-package\" value=\"org.apache.cordova.dialogs.Notification\" /></feature>",
                            "count": 1
                        },
                        {
                            "xml": "<feature name=\"NetworkStatus\"><param name=\"android-package\" value=\"org.apache.cordova.networkinformation.NetworkManager\" /></feature>",
                            "count": 1
                        },
                        {
                            "xml": "<feature name=\"SplashScreen\"><param name=\"android-package\" value=\"org.apache.cordova.splashscreen.SplashScreen\" /><param name=\"onload\" value=\"true\" /></feature>",
                            "count": 1
                        }
                    ]
                }
            }
        }
    },
    "installed_plugins": {
        "com.brodysoft.sqlitePlugin": {
            "PACKAGE_NAME": "br.com.blitsoft.guiaempresarialmt"
        },
        "org.apache.cordova.battery-status": {
            "PACKAGE_NAME": "br.com.blitsoft.guiaempresarialmt"
        },
        "org.apache.cordova.dialogs": {
            "PACKAGE_NAME": "br.com.blitsoft.guiaempresarialmt"
        },
        "org.apache.cordova.network-information": {
            "PACKAGE_NAME": "br.com.blitsoft.guiaempresarialmt"
        },
        "org.apache.cordova.splashscreen": {
            "PACKAGE_NAME": "br.com.blitsoft.guiaempresarialmt"
        }
    },
    "dependent_plugins": {}
}